Panel and spaghetti plots • brmstools
…
      panel-spaghetti-plots.Rmd

library(here)
library(brms)
library(brmstools)
library(dplyr)

Panel plot

A panel plot displays each units data along with the model’s fitted values. Currently, the function only supports models with one predictor variable.

These functions rely on obtaining tidy tibbles of the model’s fitted values:

tidyfitted(fit_ml)
#> # A tibble: 190 x 7
#>     Days Subject type  Estimate Est.Error  Q2.5 Q97.5
#>    <dbl> <fct>   <chr>    <dbl>     <dbl> <dbl> <dbl>
#>  1     0 308     r         254.     12.9   229.  280.
#>  2     1 308     r         274.     11.0   252.  296.
#>  3     2 308     r         293.      9.48  275.  312.
#>  4     3 308     r         313.      8.38  297.  329.
#>  5     4 308     r         332.      7.92  317.  348.
#>  6     5 308     r         352.      8.20  336.  368.
#>  7     6 308     r         372.      9.17  353.  390.
#>  8     7 308     r         391.     10.6   370.  412.
#>  9     8 308     r         411.     12.4   387.  435.
#> 10     9 308     r         430.     14.4   402.  458.
#> # ... with 180 more rows
…
